{
  "versions": [
    {
      "version": "4.35.0",
      "href": "https://cdn-assets.minds.com/android/Minds-4.35.0.apk",
      "sourceHref": "https://gitlab.com/minds/mobile-native/commits/v4.35.0",
      "changelog": [],
      "unstable": false,
      "hashes": [
        {
          "type": "md5",
          "value": "b0974b6d19a48c8d08b6317a4a149b9c"
        },
        {
          "type": "sha256",
          "value": "86ce748d5937c0f50b34bb47c27a31d941666db8348713d6128082e4418d2a52"
        },
        {
          "type": "sha512",
          "value": "c493b971f53a21638ae7f72954508041508ecfab8a206ec4fd32f5f729e88184eadff4ecf3ab7cce95d5af070f3a9f6337a855e8eb1fbd75d793fbf8f63ec46a"
        }
      ]
    },
    {
      "version": "4.32.1",
      "href": "https://cdn-assets.minds.com/android/Minds-App-4.32.1.apk",
      "sourceHref": "https://gitlab.com/minds/mobile-native/commits/v4.32.1",
      "changelog": [
        "Fixed an issue crashing the registration screen on some devices",
        "Fixed an issue where creating a cash account didn't navigate correctly",
        "Fixed an issue where the tokens amount was being incorrectly rounder",
        "Version bump",
        "hide in-app verification in drawer, small bugs"
      ],
      "unstable": false,
      "hashes": [
        {
          "type": "md5",
          "value": "fcf74b673987c47097e68d259d154301"
        },
        {
          "type": "sha256",
          "value": "12ecf55afa50d86a6b0473122863951d58a0f7e79f9897929f8fc56a976ea54b"
        },
        {
          "type": "sha512",
          "value": "a0b50d5d54e21ebc5499380a2a33ba86d78dbfa24e920a9453a5f5cbb5f13a498eb95936d68dc4ce958972eb1d12cd2f48e659ecc2c87678325cfbdf0986e82b"
        }
      ]
    }
  ]
}
