// Jest Snapshot v1, https://goo.gl/fbAQLP

exports[`Notifications Screen Component renders correctly 1`] = `
<View
  style={
    Array [
      Object {
        "backgroundColor": "#1C1D1F",
      },
      Object {
        "flex": 1,
      },
    ]
  }
>
  <RCTScrollView
    ListEmptyComponent={
      <ActivityIndicator
        style={
          Array [
            Object {
              "marginTop": 48,
            },
          ]
        }
      />
    }
    ListHeaderComponent={
      <React.Fragment>
        <Memo(wrappedComponent)
          navigation={
            Object {
              "getParent": [MockFunction] {
                "calls": Array [
                  Array [],
                ],
                "results": Array [
                  Object {
                    "type": "return",
                    "value": Object {
                      "addListener": [MockFunction] {
                        "calls": Array [
                          Array [
                            "tabPress",
                            [Function],
                          ],
                        ],
                        "results": Array [
                          Object {
                            "type": "return",
                            "value": undefined,
                          },
                        ],
                      },
                    },
                  },
                ],
              },
              "navigate": [MockFunction],
              "push": [MockFunction],
            }
          }
          noInsets={true}
          title="Notifications"
        />
        <Memo(wrappedComponent)
          refresh={[Function]}
          store={Object {}}
        />
      </React.Fragment>
    }
    data={Array []}
    getItem={[Function]}
    getItemCount={[Function]}
    keyExtractor={[Function]}
    onContentSizeChange={[Function]}
    onEndReached={[Function]}
    onLayout={[Function]}
    onMomentumScrollBegin={[Function]}
    onMomentumScrollEnd={[Function]}
    onRefresh={[Function]}
    onScroll={[Function]}
    onScrollBeginDrag={[Function]}
    onScrollEndDrag={[Function]}
    onViewableItemsChanged={[Function]}
    refreshControl={
      <RefreshControlMock
        onRefresh={[Function]}
        refreshing={false}
      />
    }
    refreshing={false}
    removeClippedSubviews={false}
    renderItem={[Function]}
    scrollEnabled={true}
    scrollEventThrottle={50}
    stickyHeaderHiddenOnScroll={true}
    stickyHeaderIndices={
      Array [
        0,
      ]
    }
    style={
      Object {
        "flex": 1,
        "flexGrow": 1,
        "marginTop": 0,
      }
    }
    viewabilityConfig={
      Object {
        "itemVisiblePercentThreshold": 70,
        "minimumViewTime": 500,
        "waitForInteraction": false,
      }
    }
    viewabilityConfigCallbackPairs={
      Array [
        Object {
          "onViewableItemsChanged": [Function],
          "viewabilityConfig": Object {
            "itemVisiblePercentThreshold": 70,
            "minimumViewTime": 500,
            "waitForInteraction": false,
          },
        },
      ]
    }
  >
    <RCTRefreshControl />
    <View>
      <View
        onLayout={[Function]}
      >
        <View
          style={
            Array [
              Object {
                "elevation": 3,
                "shadowOffset": Object {
                  "height": 1.5,
                  "width": 0,
                },
                "shadowOpacity": 0.35,
                "shadowRadius": 1.41,
                "zIndex": 999,
              },
              Object {
                "backgroundColor": "#1C1D1F",
                "shadowColor": "transparent",
                "zIndex": 999,
              },
            ]
          }
        >
          <View
            style={
              Object {
                "display": "flex",
                "flexDirection": "row",
                "height": 60,
                "paddingTop": 0,
              }
            }
          >
            <View
              style={
                Object {
                  "flex": 1,
                  "flexDirection": "row",
                }
              }
            >
              <View
                style={
                  Object {
                    "alignItems": "center",
                    "flex": 1,
                    "flexDirection": "row",
                    "flexGrow": 1,
                    "marginLeft": 16,
                  }
                }
              >
                <Text
                  style={
                    Array [
                      Object {
                        "color": "#F2F2F2",
                      },
                      Object {
                        "fontFamily": "Roboto-Bold",
                      },
                      Object {
                        "fontSize": 24,
                        "lineHeight": 32,
                      },
                      Object {
                        "textAlign": "left",
                      },
                    ]
                  }
                >
                  Notifications
                </Text>
              </View>
              <View
                style={
                  Object {
                    "alignItems": "center",
                    "flexDirection": "row",
                    "justifyContent": "flex-end",
                    "marginRight": 16,
                  }
                }
              >
                <View
                  style={
                    Object {
                      "marginRight": 16,
                    }
                  }
                >
                  <View
                    accessible={true}
                    collapsable={false}
                    focusable={true}
                    onBlur={[Function]}
                    onClick={[Function]}
                    onFocus={[Function]}
                    onResponderGrant={[Function]}
                    onResponderMove={[Function]}
                    onResponderRelease={[Function]}
                    onResponderTerminate={[Function]}
                    onResponderTerminationRequest={[Function]}
                    onStartShouldSetResponder={[Function]}
                  >
                    <View
                      collapsable={false}
                      style={
                        Object {
                          "transform": Array [
                            Object {
                              "scale": 1,
                            },
                          ],
                        }
                      }
                    >
                      <View
                        style={
                          Object {
                            "alignItems": "center",
                            "flexGrow": 1,
                            "justifyContent": "center",
                          }
                        }
                      >
                        <View
                          style={
                            Array [
                              Object {
                                "borderRadius": 200,
                                "overflow": "hidden",
                                "padding": 6.4,
                              },
                              Object {
                                "backgroundColor": "#404e53",
                              },
                            ]
                          }
                        >
                          <View
                            style={
                              Array [
                                Object {
                                  "alignItems": "center",
                                  "flexDirection": "row",
                                  "height": 20,
                                  "justifyContent": "center",
                                  "overflow": "hidden",
                                  "width": 20,
                                },
                              ]
                            }
                          >
                            <Text
                              allowFontScaling={false}
                              selectable={false}
                              style={
                                Array [
                                  Object {
                                    "color": "#F2F2F2",
                                    "fontSize": 18.400000000000002,
                                  },
                                  Object {},
                                  Object {
                                    "fontFamily": "Material Design Icons",
                                    "fontStyle": "normal",
                                    "fontWeight": "normal",
                                  },
                                  Object {},
                                ]
                              }
                            >
                              󰍡
                            </Text>
                          </View>
                        </View>
                      </View>
                    </View>
                  </View>
                </View>
                <View
                  accessible={true}
                  collapsable={false}
                  focusable={true}
                  onBlur={[Function]}
                  onClick={[Function]}
                  onFocus={[Function]}
                  onResponderGrant={[Function]}
                  onResponderMove={[Function]}
                  onResponderRelease={[Function]}
                  onResponderTerminate={[Function]}
                  onResponderTerminationRequest={[Function]}
                  onStartShouldSetResponder={[Function]}
                >
                  <View
                    collapsable={false}
                    style={
                      Object {
                        "transform": Array [
                          Object {
                            "scale": 1,
                          },
                        ],
                      }
                    }
                  >
                    <View
                      style={
                        Array [
                          Object {
                            "borderRadius": 200,
                            "overflow": "hidden",
                            "padding": 6.4,
                          },
                          Object {
                            "backgroundColor": "#404e53",
                          },
                        ]
                      }
                    >
                      <View
                        style={
                          Array [
                            Object {
                              "alignItems": "center",
                              "flexDirection": "row",
                              "height": 20,
                              "justifyContent": "center",
                              "overflow": "hidden",
                              "width": 20,
                            },
                          ]
                        }
                      >
                        <Text
                          allowFontScaling={false}
                          selectable={false}
                          style={
                            Array [
                              Object {
                                "color": "#F2F2F2",
                                "fontSize": 19.2,
                              },
                              Object {},
                              Object {
                                "fontFamily": "Ionicons",
                                "fontStyle": "normal",
                                "fontWeight": "normal",
                              },
                              Object {},
                            ]
                          }
                        >
                          
                        </Text>
                      </View>
                    </View>
                  </View>
                </View>
              </View>
            </View>
          </View>
        </View>
        <View
          style={
            Array [
              Object {
                "flexDirection": "row",
                "justifyContent": "flex-start",
              },
              Object {
                "backgroundColor": "#1C1D1F",
              },
            ]
          }
        >
          <RCTScrollView
            contentContainerStyle={
              Array [
                Object {
                  "paddingBottom": 8,
                },
                Object {
                  "paddingLeft": 12,
                },
                Object {
                  "flex": 1,
                  "paddingBottom": 0,
                  "paddingLeft": 0,
                  "paddingTop": 5,
                },
              ]
            }
            horizontal={true}
          >
            <View>
              <View
                style={
                  Array [
                    Object {
                      "alignItems": "center",
                      "flex": 1,
                      "flexDirection": "row",
                      "position": "relative",
                    },
                  ]
                }
              >
                <View
                  accessible={true}
                  collapsable={false}
                  focusable={true}
                  onBlur={[Function]}
                  onClick={[Function]}
                  onFocus={[Function]}
                  onResponderGrant={[Function]}
                  onResponderMove={[Function]}
                  onResponderRelease={[Function]}
                  onResponderTerminate={[Function]}
                  onResponderTerminationRequest={[Function]}
                  onStartShouldSetResponder={[Function]}
                  style={
                    Array [
                      Object {
                        "alignItems": "center",
                        "flexDirection": "column",
                        "justifyContent": "center",
                      },
                      Array [
                        Object {
                          "flex": 1,
                          "height": 52,
                          "paddingBottom": 3,
                        },
                      ],
                    ]
                  }
                >
                  <View
                    collapsable={false}
                    style={
                      Object {
                        "transform": Array [
                          Object {
                            "scale": 1,
                          },
                        ],
                      }
                    }
                  >
                    <View
                      style={
                        Object {
                          "alignItems": "center",
                        }
                      }
                    >
                      <View
                        style={
                          Array [
                            Object {
                              "alignItems": "center",
                              "flexDirection": "row",
                              "height": 24,
                              "justifyContent": "center",
                              "overflow": "hidden",
                              "width": 24,
                            },
                            Object {},
                          ]
                        }
                      >
                        <Text
                          allowFontScaling={false}
                          selectable={false}
                          style={
                            Array [
                              Object {
                                "color": "#FFD048",
                                "fontSize": 24,
                              },
                              Object {},
                              Object {
                                "fontFamily": "Material Icons",
                                "fontStyle": "normal",
                                "fontWeight": "normal",
                              },
                              Object {},
                            ]
                          }
                        >
                          
                        </Text>
                      </View>
                    </View>
                    <View
                      style={
                        Object {
                          "marginTop": 1,
                        }
                      }
                    >
                      <Text
                        numberOfLines={1}
                        style={
                          Array [
                            Object {
                              "color": "#FFD048",
                            },
                            Object {
                              "fontFamily": "Roboto-Medium",
                            },
                            Object {
                              "fontSize": 10,
                              "lineHeight": 16,
                            },
                            Object {
                              "textAlign": "center",
                            },
                          ]
                        }
                      >
                        All
                      </Text>
                    </View>
                  </View>
                </View>
                <View
                  style={
                    Array [
                      Array [
                        Object {
                          "backgroundColor": "#FFD048",
                        },
                        Object {
                          "bottom": -2.5,
                          "height": 3,
                          "left": 0,
                          "position": "absolute",
                          "width": "100%",
                          "zIndex": 100,
                        },
                      ],
                      Object {
                        "transform": Array [
                          Object {
                            "translateY": 0,
                          },
                        ],
                      },
                    ]
                  }
                />
              </View>
              <View
                style={
                  Array [
                    Object {
                      "alignItems": "center",
                      "flex": 1,
                      "flexDirection": "row",
                      "position": "relative",
                    },
                  ]
                }
              >
                <View
                  accessible={true}
                  collapsable={false}
                  focusable={true}
                  onBlur={[Function]}
                  onClick={[Function]}
                  onFocus={[Function]}
                  onResponderGrant={[Function]}
                  onResponderMove={[Function]}
                  onResponderRelease={[Function]}
                  onResponderTerminate={[Function]}
                  onResponderTerminationRequest={[Function]}
                  onStartShouldSetResponder={[Function]}
                  style={
                    Array [
                      Object {
                        "alignItems": "center",
                        "flexDirection": "column",
                        "justifyContent": "center",
                      },
                      Array [
                        Object {
                          "flex": 1,
                          "height": 52,
                          "paddingBottom": 3,
                        },
                      ],
                    ]
                  }
                >
                  <View
                    collapsable={false}
                    style={
                      Object {
                        "transform": Array [
                          Object {
                            "scale": 1,
                          },
                        ],
                      }
                    }
                  >
                    <View
                      style={
                        Object {
                          "alignItems": "center",
                        }
                      }
                    >
                      <View
                        style={
                          Array [
                            Object {
                              "alignItems": "center",
                              "flexDirection": "row",
                              "height": 24,
                              "justifyContent": "center",
                              "overflow": "hidden",
                              "width": 24,
                            },
                            Object {},
                          ]
                        }
                      >
                        <Text
                          allowFontScaling={false}
                          selectable={false}
                          style={
                            Array [
                              Object {
                                "color": "#AEB0B8",
                                "fontSize": 22.080000000000002,
                              },
                              Object {},
                              Object {
                                "fontFamily": "Material Icons",
                                "fontStyle": "normal",
                                "fontWeight": "normal",
                              },
                              Object {},
                            ]
                          }
                        >
                          
                        </Text>
                      </View>
                    </View>
                    <View
                      style={
                        Object {
                          "marginTop": 1,
                        }
                      }
                    >
                      <Text
                        numberOfLines={1}
                        style={
                          Array [
                            Object {
                              "color": "#b9bbc0",
                            },
                            Object {
                              "fontFamily": "Roboto-Medium",
                            },
                            Object {
                              "fontSize": 10,
                              "lineHeight": 16,
                            },
                            Object {
                              "textAlign": "center",
                            },
                          ]
                        }
                      >
                        Tags
                      </Text>
                    </View>
                  </View>
                </View>
                <View
                  style={
                    Array [
                      Array [
                        Object {
                          "backgroundColor": "#53565A",
                        },
                        Object {
                          "bottom": -2.5,
                          "height": 3,
                          "left": 0,
                          "position": "absolute",
                          "width": "100%",
                          "zIndex": 100,
                        },
                      ],
                      Object {
                        "transform": Array [
                          Object {
                            "translateY": 0,
                          },
                        ],
                      },
                    ]
                  }
                />
              </View>
              <View
                style={
                  Array [
                    Object {
                      "alignItems": "center",
                      "flex": 1,
                      "flexDirection": "row",
                      "position": "relative",
                    },
                  ]
                }
              >
                <View
                  accessible={true}
                  collapsable={false}
                  focusable={true}
                  onBlur={[Function]}
                  onClick={[Function]}
                  onFocus={[Function]}
                  onResponderGrant={[Function]}
                  onResponderMove={[Function]}
                  onResponderRelease={[Function]}
                  onResponderTerminate={[Function]}
                  onResponderTerminationRequest={[Function]}
                  onStartShouldSetResponder={[Function]}
                  style={
                    Array [
                      Object {
                        "alignItems": "center",
                        "flexDirection": "column",
                        "justifyContent": "center",
                      },
                      Array [
                        Object {
                          "flex": 1,
                          "height": 52,
                          "paddingBottom": 3,
                        },
                      ],
                    ]
                  }
                >
                  <View
                    collapsable={false}
                    style={
                      Object {
                        "transform": Array [
                          Object {
                            "scale": 1,
                          },
                        ],
                      }
                    }
                  >
                    <View
                      style={
                        Object {
                          "alignItems": "center",
                        }
                      }
                    >
                      <View
                        style={
                          Array [
                            Object {
                              "alignItems": "center",
                              "flexDirection": "row",
                              "height": 24,
                              "justifyContent": "center",
                              "overflow": "hidden",
                              "width": 24,
                            },
                            Object {},
                          ]
                        }
                      >
                        <Text
                          allowFontScaling={false}
                          selectable={false}
                          style={
                            Array [
                              Object {
                                "color": "#AEB0B8",
                                "fontSize": 22.080000000000002,
                              },
                              Object {},
                              Object {
                                "fontFamily": "Material Design Icons",
                                "fontStyle": "normal",
                                "fontWeight": "normal",
                              },
                              Object {},
                            ]
                          }
                        >
                          󰍡
                        </Text>
                      </View>
                    </View>
                    <View
                      style={
                        Object {
                          "marginTop": 1,
                        }
                      }
                    >
                      <Text
                        numberOfLines={1}
                        style={
                          Array [
                            Object {
                              "color": "#b9bbc0",
                            },
                            Object {
                              "fontFamily": "Roboto-Medium",
                            },
                            Object {
                              "fontSize": 10,
                              "lineHeight": 16,
                            },
                            Object {
                              "textAlign": "center",
                            },
                          ]
                        }
                      >
                        Comments
                      </Text>
                    </View>
                  </View>
                </View>
                <View
                  style={
                    Array [
                      Array [
                        Object {
                          "backgroundColor": "#53565A",
                        },
                        Object {
                          "bottom": -2.5,
                          "height": 3,
                          "left": 0,
                          "position": "absolute",
                          "width": "100%",
                          "zIndex": 100,
                        },
                      ],
                      Object {
                        "transform": Array [
                          Object {
                            "translateY": 0,
                          },
                        ],
                      },
                    ]
                  }
                />
              </View>
              <View
                style={
                  Array [
                    Object {
                      "alignItems": "center",
                      "flex": 1,
                      "flexDirection": "row",
                      "position": "relative",
                    },
                  ]
                }
              >
                <View
                  accessible={true}
                  collapsable={false}
                  focusable={true}
                  onBlur={[Function]}
                  onClick={[Function]}
                  onFocus={[Function]}
                  onResponderGrant={[Function]}
                  onResponderMove={[Function]}
                  onResponderRelease={[Function]}
                  onResponderTerminate={[Function]}
                  onResponderTerminationRequest={[Function]}
                  onStartShouldSetResponder={[Function]}
                  style={
                    Array [
                      Object {
                        "alignItems": "center",
                        "flexDirection": "column",
                        "justifyContent": "center",
                      },
                      Array [
                        Object {
                          "flex": 1,
                          "height": 52,
                          "paddingBottom": 3,
                        },
                      ],
                    ]
                  }
                >
                  <View
                    collapsable={false}
                    style={
                      Object {
                        "transform": Array [
                          Object {
                            "scale": 1,
                          },
                        ],
                      }
                    }
                  >
                    <View
                      style={
                        Object {
                          "alignItems": "center",
                        }
                      }
                    >
                      <View
                        style={
                          Array [
                            Object {
                              "alignItems": "center",
                              "flexDirection": "row",
                              "height": 24,
                              "justifyContent": "center",
                              "overflow": "hidden",
                              "width": 24,
                            },
                            Object {},
                          ]
                        }
                      >
                        <Text
                          allowFontScaling={false}
                          selectable={false}
                          style={
                            Array [
                              Object {
                                "color": "#AEB0B8",
                                "fontSize": 19.200000000000003,
                              },
                              Object {},
                              Object {
                                "fontFamily": "FontAwesome",
                                "fontStyle": "normal",
                                "fontWeight": "normal",
                              },
                              Object {},
                            ]
                          }
                        >
                          
                        </Text>
                      </View>
                    </View>
                    <View
                      style={
                        Object {
                          "marginTop": 1,
                        }
                      }
                    >
                      <Text
                        numberOfLines={1}
                        style={
                          Array [
                            Object {
                              "color": "#b9bbc0",
                            },
                            Object {
                              "fontFamily": "Roboto-Medium",
                            },
                            Object {
                              "fontSize": 10,
                              "lineHeight": 16,
                            },
                            Object {
                              "textAlign": "center",
                            },
                          ]
                        }
                      >
                        Subscribers
                      </Text>
                    </View>
                  </View>
                </View>
                <View
                  style={
                    Array [
                      Array [
                        Object {
                          "backgroundColor": "#53565A",
                        },
                        Object {
                          "bottom": -2.5,
                          "height": 3,
                          "left": 0,
                          "position": "absolute",
                          "width": "100%",
                          "zIndex": 100,
                        },
                      ],
                      Object {
                        "transform": Array [
                          Object {
                            "translateY": 0,
                          },
                        ],
                      },
                    ]
                  }
                />
              </View>
              <View
                style={
                  Array [
                    Object {
                      "alignItems": "center",
                      "flex": 1,
                      "flexDirection": "row",
                      "position": "relative",
                    },
                  ]
                }
              >
                <View
                  accessible={true}
                  collapsable={false}
                  focusable={true}
                  onBlur={[Function]}
                  onClick={[Function]}
                  onFocus={[Function]}
                  onResponderGrant={[Function]}
                  onResponderMove={[Function]}
                  onResponderRelease={[Function]}
                  onResponderTerminate={[Function]}
                  onResponderTerminationRequest={[Function]}
                  onStartShouldSetResponder={[Function]}
                  style={
                    Array [
                      Object {
                        "alignItems": "center",
                        "flexDirection": "column",
                        "justifyContent": "center",
                      },
                      Array [
                        Object {
                          "flex": 1,
                          "height": 52,
                          "paddingBottom": 3,
                        },
                      ],
                    ]
                  }
                >
                  <View
                    collapsable={false}
                    style={
                      Object {
                        "transform": Array [
                          Object {
                            "scale": 1,
                          },
                        ],
                      }
                    }
                  >
                    <View
                      style={
                        Object {
                          "alignItems": "center",
                        }
                      }
                    >
                      <View
                        style={
                          Array [
                            Object {
                              "alignItems": "center",
                              "flexDirection": "row",
                              "height": 24,
                              "justifyContent": "center",
                              "overflow": "hidden",
                              "width": 24,
                            },
                            Object {},
                          ]
                        }
                      >
                        <Text
                          allowFontScaling={false}
                          selectable={false}
                          style={
                            Array [
                              Object {
                                "color": "#AEB0B8",
                                "fontSize": 23.04,
                              },
                              Object {},
                              Object {
                                "fontFamily": "Material Icons",
                                "fontStyle": "normal",
                                "fontWeight": "normal",
                              },
                              Object {},
                            ]
                          }
                        >
                          
                        </Text>
                      </View>
                    </View>
                    <View
                      style={
                        Object {
                          "marginTop": 1,
                        }
                      }
                    >
                      <Text
                        numberOfLines={1}
                        style={
                          Array [
                            Object {
                              "color": "#b9bbc0",
                            },
                            Object {
                              "fontFamily": "Roboto-Medium",
                            },
                            Object {
                              "fontSize": 10,
                              "lineHeight": 16,
                            },
                            Object {
                              "textAlign": "center",
                            },
                          ]
                        }
                      >
                        Votes
                      </Text>
                    </View>
                  </View>
                </View>
                <View
                  style={
                    Array [
                      Array [
                        Object {
                          "backgroundColor": "#53565A",
                        },
                        Object {
                          "bottom": -2.5,
                          "height": 3,
                          "left": 0,
                          "position": "absolute",
                          "width": "100%",
                          "zIndex": 100,
                        },
                      ],
                      Object {
                        "transform": Array [
                          Object {
                            "translateY": 0,
                          },
                        ],
                      },
                    ]
                  }
                />
              </View>
              <View
                style={
                  Array [
                    Object {
                      "alignItems": "center",
                      "flex": 1,
                      "flexDirection": "row",
                      "position": "relative",
                    },
                  ]
                }
              >
                <View
                  accessible={true}
                  collapsable={false}
                  focusable={true}
                  onBlur={[Function]}
                  onClick={[Function]}
                  onFocus={[Function]}
                  onResponderGrant={[Function]}
                  onResponderMove={[Function]}
                  onResponderRelease={[Function]}
                  onResponderTerminate={[Function]}
                  onResponderTerminationRequest={[Function]}
                  onStartShouldSetResponder={[Function]}
                  style={
                    Array [
                      Object {
                        "alignItems": "center",
                        "flexDirection": "column",
                        "justifyContent": "center",
                      },
                      Array [
                        Object {
                          "flex": 1,
                          "height": 52,
                          "paddingBottom": 3,
                        },
                      ],
                    ]
                  }
                >
                  <View
                    collapsable={false}
                    style={
                      Object {
                        "transform": Array [
                          Object {
                            "scale": 1,
                          },
                        ],
                      }
                    }
                  >
                    <View
                      style={
                        Object {
                          "alignItems": "center",
                        }
                      }
                    >
                      <View
                        style={
                          Array [
                            Object {
                              "alignItems": "center",
                              "flexDirection": "row",
                              "height": 24,
                              "justifyContent": "center",
                              "overflow": "hidden",
                              "width": 24,
                            },
                            Object {},
                          ]
                        }
                      >
                        <Text
                          allowFontScaling={false}
                          selectable={false}
                          style={
                            Array [
                              Object {
                                "color": "#AEB0B8",
                                "fontSize": 24.96,
                              },
                              Object {},
                              Object {
                                "fontFamily": "Material Design Icons",
                                "fontStyle": "normal",
                                "fontWeight": "normal",
                              },
                              Object {},
                            ]
                          }
                        >
                          󰑖
                        </Text>
                      </View>
                    </View>
                    <View
                      style={
                        Object {
                          "marginTop": 1,
                        }
                      }
                    >
                      <Text
                        numberOfLines={1}
                        style={
                          Array [
                            Object {
                              "color": "#b9bbc0",
                            },
                            Object {
                              "fontFamily": "Roboto-Medium",
                            },
                            Object {
                              "fontSize": 10,
                              "lineHeight": 16,
                            },
                            Object {
                              "textAlign": "center",
                            },
                          ]
                        }
                      >
                        Reminds
                      </Text>
                    </View>
                  </View>
                </View>
                <View
                  style={
                    Array [
                      Array [
                        Object {
                          "backgroundColor": "#53565A",
                        },
                        Object {
                          "bottom": -2.5,
                          "height": 3,
                          "left": 0,
                          "position": "absolute",
                          "width": "100%",
                          "zIndex": 100,
                        },
                      ],
                      Object {
                        "transform": Array [
                          Object {
                            "translateY": 0,
                          },
                        ],
                      },
                    ]
                  }
                />
              </View>
            </View>
          </RCTScrollView>
        </View>
      </View>
      <ActivityIndicator
        color="#b9bbc0"
        onLayout={[Function]}
        style={
          Array [
            Object {
              "marginTop": 48,
            },
          ]
        }
      />
    </View>
  </RCTScrollView>
  <InteractionsBottomSheet
    entity={Object {}}
    keepOpen={false}
    snapPoints={
      Array [
        "90%",
      ]
    }
    withoutInsets={true}
  />
</View>
`;
